[
  {
    "articleDescriptions" : [
      {
        "id" : "Sunscald",
        "imageId" : "\/obj-image\/blog\/diagnose_wiki_sunscald_main.jpg",
        "text" : "This problem is common in woody plants and vegetables. Caused by intense sunlight, heat, and rapid temperature changes, it can lead to plant damage.",
        "title" : "Sunscald"
      },
      {
        "text" : "Caused by long-term lack of sufficient watering, drought stress may lead to a range of symptoms, such as wilting and yellowing of leaves.",
        "title" : "Drought stress"
      },
      {
        "text" : "Freeze injuries usually happen during unusually cold periods, most commonly in late spring and early fall, when unexpected frosts can cause the worst damage.",
        "title" : "Freeze injury"
      },
      {
        "id" : "Nutrient deficiency",
        "imageId" : "\/obj-image\/blog\/diagnose_long_nutrient_deficiency_main.jpg",
        "text" : "Nutrient deficiencies are characteristic of plants growing in poor soils or in containers. There are various types of nutrients that a growing medium may lack, for instance, nitrogen or potassium. The most common treatment for this problem is supplemental feeding.",
        "title" : "Nutrient deficiency"
      },
      {
        "id" : "Water-related issue",
        "imageId" : "\/obj-image\/blog\/diagnose_short_water_related_issue_main.jpg",
        "text" : "Characterized by various symptoms, from wilting to root rot, incorrect watering may lead to multiple plant health problems.",
        "title" : "Water-related issue"
      },
      {
        "text" : "When cultivated in inappropriate conditions (wrong temperature, watering, lighting, humidity, and etc.), plants may develop various health problems and be prone to stunted growth.",
        "title" : "Improper planting conditions"
      }
    ],
    "id" : "Abiotic",
    "imageId" : "\/obj-image\/blog\/diagnose_short_abiotic_main.jpg",
    "symptoms" : "Browning and yellowing leaves, wilting",
    "text" : "While biotic plant problems are induced by living organisms, such as fungi, bacteria, viruses, nematodes as well as various insects and animals, abiotic disorders are caused by noninfectious factors and unsuitable environmental conditions. Among the most common problems are sunscald, drought stress, improper care or planting conditions, and nutrient deficiency as well as various types of injuries, such as freeze injury, wind injury, or chemical injury. \n\nWhat is different about abiotic diseases is that they don’t spread from plant to plant. Also, they are common for many plant species, while biotic diseases are often limited to a certain plant species. Sometimes, symptoms of abiotic damage and the damage caused by living organisms may be very similar. Browning of leaves, for instance, may be caused by either drought stress or anthracnose. It’s sometimes hard to distinguish between the two. In cases when the problem can’t be easily diagnosed, a systematic approach to treatment is recommended.",
    "title" : "Abiotic"
  },
  {
    "articleDescriptions" : [
      {
        "id" : "Canker",
        "imageId" : "\/obj-image\/blog\/diagnose_short_canker_main.jpg",
        "text" : "Common for hardwood trees, canker leads to the appearance of various dead areas on the tree bark. Caused by bacteria and fungi, the disease usually affects weakened trees.",
        "title" : "Canker"
      },
      {
        "text" : "Wood rot is the decomposition of wood caused by fungal infections and excessive moisture. The fungus digests the lignin—a polymer that keeps wood naturally rigid—then turns wood white and makes it fibrous in texture.",
        "title" : "White rot of wood"
      }
    ],
    "id" : "Agaricomycetes",
    "imageId" : "\/obj-image\/blog\/diagnose_short_agaricomycetes_main.jpg",
    "symptoms" : "Wilting, dieback of foliage, cankers, white rot",
    "text" : "The Agaricomycetes are a class of fungi in the division Basidiomycota. They include at least 10,000 species of the gill-bearing mushrooms, over 1,000 species of the tube-bearing boletes as well as the ear fungi, the shelf fungi, and numerous other species. As pathogenic fungi, the Agaricomycetes mostly infect trees, which may eventually lead to their wilting and death. Some of them are also important wood decayers. Among the diseases they can trigger are canker and white rot of the wood.",
    "title" : "Agaricomycetes"
  },
  {
    "articleDescriptions" : [
      {
        "id" : "Alternaria black molds and stem cankers",
        "imageId" : "\/obj-image\/blog\/diagnose_short_alternaria_black_molds_and_stem_cankers_main.jpg",
        "text" : "Alternaria black molds and stem cankers are caused by fungal pathogens. Cankers appear on stems, leaves, and fruit, have dark brown to black color, and can lead to the death of a plant. Black molds appear as light to dark brown lesions on the surface of ripe fruits.",
        "title" : "Alternaria black molds and stem cankers"
      },
      {
        "text" : "Leaf lesions are usually caused by bacterial, viral, and fungal infections. Moreover, they can also point to a pest infestation.",
        "title" : "Leaf lesions"
      },
      {
        "id" : "Black rot",
        "imageId" : "\/obj-image\/blog\/diagnose_long_black_rot_main.jpg",
        "text" : "The number one cause of black rot is a fungal or a bacterial infection. This disease usually attacks fruits and vegetables.",
        "title" : "Black rot"
      },
      {
        "id" : "Alternaria blight",
        "imageId" : "\/obj-image\/blog\/diagnose_long_alternaria_blight_main.jpg",
        "text" : "Alternaria blight attacks vegetables, such as pumpkins and melons. Yellow and brown spots are the primary symptom of this disease.",
        "title" : "Alternaria blight"
      },
      {
        "text" : "Ringspot disease spreads quickly in a cold and humid environment. It manifests itself in brown leaf lesions with yellow margins.",
        "title" : "Ringspot disease"
      }
    ],
    "id" : "Alternaria",
    "imageId" : "\/obj-image\/blog\/diagnose_short_alternaria_main.jpg",
    "symptoms" : "Stem canker, leaf lesions, black rot, blight",
    "text" : "Alternaria is a genus that encompasses 299 species of fungi. They are considered to be one of the most common plant pathogens responsible for at least 20% of yield loss. Alternaria fungi are known to affect a variety of vegetables, including carrots, pumpkins, potatoes, and tomatoes. Moreover, it infects citrus plants, roses, wheat, and tobacco. Most plants affected by these fungi develop stem canker, leaf lesions, black rot, leaf blight, and ringspot disease. Alternaria fungi don’t pose a threat to plants only—they also cause allergic reactions, hay fever, and asthma in humans.",
    "title" : "Alternaria"
  },
  {
    "articleDescriptions" : [
      {
        "id" : "Powdery mildew",
        "imageId" : "\/obj-image\/blog\/diagnose_long_powdery_mildew_main.jpg",
        "text" : "Powdery mildew is a very common fungal disease that manifests itself as a white, powdery coating on any part of the plant. Without appropriate control, the disease spreads rapidly, taking over the whole plant.",
        "title" : "Powdery mildew"
      },
      {
        "text" : "Dutch elm disease infects elm trees. It’s caused by Ascomycota fungi and spread by elm bark beetles. Dutch elm disease is responsible for the mass death of elms in Europe and North America in the 20th century.",
        "title" : "Dutch elm disease"
      },
      {
        "text" : "Brown rot is a common problem among such fruit trees as cherries, apricots, plums, and peaches. It affects flowers and fruits, causing cankers and killing infected stems and branches. The pathogens of brown rot usually spread with the help of rain, wind, or insects.",
        "title" : "Brown rot"
      },
      {
        "id" : "Fusarium wilts, blights, rots and damping-off",
        "imageId" : "\/obj-image\/blog\/diagnose_long_fusarium_wilts_blights_rots_and_damping_off_main.jpg",
        "text" : "Fusarium wilts, blights, rots and damping-off are caused by microscopic fungi called Fusarium. The disease enters through the roots, slowly infecting the whole root system along with stems, leaves, buds, and other plant organs. Fungi affect the vascular system of the whole plant, impairing its ability to transport nutrients.",
        "title" : "Fusarium wilts, blights, rots and damping-off"
      },
      {
        "text" : "Peach leaf curl is a disease commonly found in the U.S., Europe, Africa, Asia, Australia, and New Zealand. It infects peach, almond, and nectarine trees, causing them to produce distorted, red leaves.",
        "title" : "Peach leaf curl"
      }
    ],
    "id" : "Ascomycetes",
    "imageId" : "\/obj-image\/blog\/diagnose_short_ascomycetes_main.jpg",
    "symptoms" : "Powdery mildew, brown rot, blight, leaf curl",
    "text" : "Ascomycetes, also known as sac fungi, are fungi that belong to the Ascomycota phylum in the kingdom of Fungi. The phylum is quite large, containing more than 64,000 species. This phylum is quite diverse: its representatives range from widely known mushrooms, such as truffles and cup fungi, to dangerous pathogens that affect humans, animals, and plants. Among the most common plant diseases caused by Ascomycetes are powdery mildew, Dutch elm disease, and brown rot.",
    "title" : "Ascomycetes"
  },
  {
    "articleDescriptions" : [
      {
        "id" : "Canker",
        "imageId" : "\/obj-image\/blog\/diagnose_short_canker_main.jpg",
        "text" : "Common for hardwood trees, canker leads to the appearance of various dead areas on the tree bark. Caused by bacteria and fungi, the disease usually affects weakened trees.",
        "title" : "Canker"
      },
      {
        "id" : "Biotic burn",
        "imageId" : "\/obj-image\/blog\/diagnose_long_biotic_burn_main.jpg",
        "text" : "Biotic burns stunt plant’s growth. Spots of various shapes and colors start to appear on the plant’s leaves. Affected leaves die and fall off. Heavily damaged plants die.",
        "title" : "Biotic burn"
      },
      {
        "id" : "Bacterial leaf spot",
        "imageId" : "\/obj-image\/blog\/diagnose_long_bacterial_leaf_spot_main.jpg",
        "text" : "The disease causes the appearance of lesions with blurred edges on the vegetative parts of the plant. They are first angular and irregular in shape, yellowish or light-green in color. Later, the spots become brown and turn black, and the disease spreads all over the foliage.",
        "title" : "Bacterial leaf spot"
      },
      {
        "text" : "Bacterial wilt is a complex of diseases caused by several pathogens. It usually affects cucumber and muskmelon plants as well as cucurbits (e.g., squash, pumpkins, and gourds).",
        "title" : "Bacterial wilt"
      },
      {
        "id" : "Fire blight",
        "imageId" : "\/obj-image\/blog\/diagnose_long_fire_blight_main.jpg",
        "text" : "Fire blight is a contagious disease that affects the members of the Rosaceae family (e.g., apples). Affected plants become scorched and finally die. The disease presents a serious problem for cultivation.",
        "title" : "Fire blight"
      },
      {
        "text" : "This is a deadly bacterial disease that infects rice. During an unlucky year, it can destroy as much as 75% of the entire rice crop. On average, it affects millions of hectares of rice annually.",
        "title" : "Rice bacterial blight"
      },
      {
        "id" : "Crown gall",
        "imageId" : "\/obj-image\/blog\/diagnose_long_crown_gall_main.jpg",
        "text" : "Crown gall is caused by the bacterium that lives in the soil. The disease leads to the development of abnormal growths on roots, twigs, and branches of plants. The growths are called galls; hence the name.",
        "title" : "Crown gall"
      },
      {
        "text" : "Basal rot leads to yellowing, curling, and necrosis of leaf tips. Caused by various bacteria and fungi, the disease usually attacks flower and crop bulbs.",
        "title" : "Basal rot"
      },
      {
        "text" : "This disease infects apples, peach trees, cereals, and root and tuber crops (e.g., potatoes). In case of trees and cereals, leaves of the affected plant wither and drop off. Infected potatoes develop rough and corky patches on roots and tubers. Though the disease isn’t deadly, it affects the appearance of the crop and diminishes its marketing value.",
        "title" : "Scab"
      }
    ],
    "id" : "Bacteria",
    "imageId" : "\/obj-image\/blog\/diagnose_short_bacteria_main.jpg",
    "symptoms" : "Cankers, biotic burn, leaf spot, wilt",
    "text" : "Pathogenic bacteria spread in many ways—by rain or wind, with the help of birds and insects—and enter plants through wounds and natural openings. They become active and multiply rapidly when the plant grows in unfavorable conditions, such as poor soil or inadequate temperature regime, or when it’s stressed by improper care or external factors. Bacterial infections damage plant tissues and can cause tumors and necrosis.",
    "title" : "Bacteria"
  },
  {
    "articleDescriptions" : [
      {
        "text" : "White rust causes the development of light yellow areas with chalky-white and powdery pustules on leaves, loss of foliage, distortion of stems, and stunted growth.",
        "title" : "White rust"
      },
      {
        "id" : "Downy mildew",
        "imageId" : "\/obj-image\/blog\/diagnose_long_downy_mildew_main.jpg",
        "text" : "Downy mildew is a disease caused by microscopic fungi. It leads to the appearance of white or yellow spots on leaves that later turn into brownish-black patches. The fungi affect the vascular system of the whole plant, impairing its ability to transport nutrients, which results in stunted growth.",
        "title" : "Downy mildew"
      },
      {
        "id" : "Late blight",
        "imageId" : "\/obj-image\/blog\/diagnose_long_late_blight_main.jpg",
        "text" : "Late blight is a devastating disease of tomatoes and potatoes. It starts with the appearance of blackish or brown lesions on leaves, followed by a complete collapse of foliage. The disease spreads excessively fast: it can rot an entire field of potatoes and kill a tomato crop in a matter of a few days, causing total yield loss.",
        "title" : "Late blight"
      }
    ],
    "id" : "Chromista",
    "imageId" : "\/obj-image\/blog\/diagnose_short_chromista_main.jpg",
    "symptoms" : "White and yellow spots or blackish and brown lesions",
    "text" : "The Chromista kingdom includes various plant pathogens that are similar to fungi. They can be aquatic or soil-inhabiting and tend to infect agricultural and horticultural plants. They also include a number of serious human disease agents (e.g., malaria parasite). Among the devastating diseases caused by the Chromista pathogens are white rust on cabbage, downy mildew on lettuce, and potato late blight.",
    "title" : "Chromista"
  },
  {
    "articleDescriptions" : [
      {
        "id" : "Anthracnose",
        "imageId" : "\/obj-image\/blog\/diagnose_long_anthracnose_main.jpg",
        "text" : "Anthracnose first manifests itself as small brown spots on stems, stalks, leaves, young shoots, and fruits of plants. Later on, the spots grow and merge into larger spots. Wet rotting lesions may appear next. Plants weakened by improper care or pests are most prone to this disease.",
        "title" : "Anthracnose"
      },
      {
        "text" : "The fungus Colletotrichum falcatum causes red rot of sugarcane. First described in 1893, it’s one of the severest sugarcane diseases. The disease is characterized by red and white patches within the cane and can also be diagnosed by a sour alcoholic odor that the cane emits when you split it open. In the initial stages, drooping, withering, and yellowing of leaves can be seen, followed by wilting of the crown and the death of a plant. It can dramatically reduce a sugarcane crop.",
        "title" : "Red rot of sugarcane"
      },
      {
        "text" : "The disease is caused by Colletotrichum kahawae, a fungal plant pathogen. Mostly spread in the African continent, it leads to necrosis and premature drop of green coffee berries. The pathogen thrives in high humidity and warm temperatures.",
        "title" : "Coffee berry disease"
      }
    ],
    "id" : "Colletotrichum",
    "imageId" : "\/obj-image\/blog\/diagnose_short_colletotrichum_main.jpg",
    "symptoms" : "Brown spots, red or white patches, an alcoholic odor",
    "text" : "Colletotrichum is a genus of fungi that causes diseases in various woody and herbaceous plants. Its plant pathogens are mostly distributed in tropical and subtropical regions but can affect temperate plants as well. They primarily cause the development of anthracnose, a disorder characterized by necrotic spots on foliage, stems, flowers, and fruit as well as crown and stem rots. Among other related problems are red rot of sugarcane, coffee berry disease, and crown rot of strawberry and banana.",
    "title" : "Colletotrichum"
  },
  {
    "articleDescriptions" : [
      {
        "id" : "Insecta",
        "imageId" : "\/obj-image\/blog\/diagnose_wiki_insecta_main.jpg",
        "text" : "Insects (Insecta) are pests that spread diseases and destroy plant tissue. There are thousands of different types of pests a gardener can encounter, the most common ones being mealybugs, spider mites, thrips, and lacebugs. Usually, pests can be eradicated with the help of special pesticides. However, there are several ways to control pest populations without chemicals. The most important step is establishing a proper care regime for your plant according to its specific requirements. You can also promote the spread of beneficial insects in your garden that will prey on harmful pests.",
        "title" : "Insecta"
      },
      {
        "text" : "Rodents, deer, mice, and birds can also cause a lot of damage to your plants if their population isn’t kept in check. If you want to keep rodents out of your garden, you need to remove fallen fruits and nuts. Don’t leave fecal matter or food waste near your plants. You can store seeds and compost in rodent-resistant containers. If your garden is bothered by deer, spray your plants with a deer repellent. Bird spikes and repellent sprays can help you with bird management. Place shiny objects in your garden to discourage birds from coming back; the light reflected from these objects will scare them away.",
        "title" : "Animals"
      }
    ],
    "id" : "Animalia",
    "imageId" : "\/obj-image\/blog\/diagnose_short_animalia_main.jpg",
    "symptoms" : "Mechanical damage, wounds, defoliation",
    "text" : "Animals and pests belonging to the Animalia kingdom can cause quite a lot of damage to houseplants. They do it by feeding on leaves, stems, roots, and other parts of the plant or by inhabiting plant tissues. Pests can also spread bacterial and viral diseases that can result in permanent damage and even plant death.",
    "title" : "Animalia"
  },
  {
    "articleDescriptions" : [
      {
        "text" : "Plant death due to old age is caused by aging and is the final stage of the physiological process.",
        "title" : "Aging"
      },
      {
        "text" : "Plants can be quite fastidious when it comes to daily care. If you don’t provide them with enough attention or appropriate conditions, they will droop, wilt, lose color, and eventually die. Always check your specific plant’s care needs and try your best to fulfill them.",
        "title" : "Improper care"
      },
      {
        "id" : "Animalia",
        "imageId" : "\/obj-image\/blog\/diagnose_short_animalia_main.jpg",
        "text" : "Apart from carrying harmful diseases, pests that belong to the Animalia kingdom cause mechanical damage that can end your plant’s life if no extra measures are taken. Make sure to control the population of pests and keep them in check.",
        "title" : "Animalia"
      },
      {
        "text" : "There is a number of lethal diseases that cause irreversible damage and eventually kill your plants. That’s why preventive measures should be included in your plant’s daily care routine, especially if you live in an area where previous breakouts of a certain plant disease had occurred. As soon as you notice the first signs of a disease, you need to identify its type, cause, and the severity of damage. Then, you need to take action and follow all the necessary treatment recommendations.",
        "title" : "Diseases"
      }
    ],
    "id" : "Dead plant",
    "imageId" : "\/obj-image\/blog\/diagnose_short_dead_plant_main.jpg",
    "symptoms" : "Wilting, crisping, slow growth, brown spots",
    "text" : "Death is an inevitable stage of every plant’s life. Sooner or later, each species reaches the end of its life cycle. While this is a normal process for all species, plant death can be postponed with proper care. Avoid pests and diseases to prolong your plant’s life.",
    "title" : "Dead plant"
  },
  {
    "articleDescriptions" : [
      {
        "id" : "Impact of sap-sucking insect",
        "imageId" : "\/obj-image\/blog\/diagnose_short_impact_of_sap_sucking_insect_main.jpg",
        "text" : "Sucking insects (aphids, scales, leafhoppers) suck the sap out of plants, causing spotting, leaf curling, and fruit loss. The tell-tale signs of a sap-sucking pest infestation are yellowing and browning of foliage and wilting.",
        "title" : "Impact of sap-sucking insect"
      },
      {
        "text" : "Insects with rasping mouthparts (thrips) scrape the surface of leaves and flowers, damaging plant cells. Gall makers insert parts of their bodies into the plant, causing swellings. They can also deposit their eggs into the plant tissue. Wood borers cause damage by feeding on wood.",
        "title" : "Other types of pest damage"
      }
    ],
    "id" : "Feeding damage by insects",
    "imageId" : "\/obj-image\/blog\/diagnose_short_feeding_damage_by_insects_main.jpg",
    "symptoms" : "Mechanical damage, chewing marks, spots",
    "text" : "Feeding damage by insects includes holes or notches in leaves, removal of the tissue between leaf veins, tunnels in the plant tissue, root consumption, and other types of mechanical damage. It’s mainly caused by insects with chewing mouthparts: caterpillars, beetles, and grasshoppers. Some even bore tunnels into the plant tissue, deforming stems and creating holes in the leaves.",
    "title" : "Feeding damage by insects"
  },
  {
    "articleDescriptions" : [
      {
        "text" : "When your plant lacks sunlight, its new foliage turns yellow, old leaves lose color, and its growth slows down. You can fix this issue by moving the plant closer to south-facing windows (if it needs full sun exposure) or to west- or east-facing windows (if it prefers filtered light). You can also use grow lights for supplemental aid.",
        "title" : "Lack of sunlight"
      },
      {
        "text" : "When your plant receives too much sunlight, its leaves get scorched. The symptoms may vary depending on the plants, but general signs include browning of plant tissue, including leaf margins and tips, and yellowing or darkening of veins, which may lead to eventual wilting and dieback of foliage. As soon as you spot these signs, you need to relocate your plant to protect it from direct sun exposure.",
        "title" : "Overexposure to sun"
      },
      {
        "text" : "In such a case, full sun may alternate with dark and gloomy spots, which is bad for your houseplants. Choose a well-lit spot in your home or garden with consistent lighting. Carefully read your specific plant’s care instructions to determine what kind of sunlight suits it best and relocate it accordingly.",
        "title" : "Poor light distribution"
      }
    ],
    "id" : "Light-related issue",
    "imageId" : "\/obj-image\/blog\/diagnose_short_light_related_issue_main.jpg",
    "symptoms" : "Yellowing and browning foliage, stunted growth",
    "text" : "A light-related issue is an abiotic disorder that can be caused by inadequate light intensity or quality. Various plant species differ in light requirements in terms of intensity and type, so you need to make sure to provide your plant with adequate sunlight.",
    "title" : "Light-related issue"
  },
  {
    "articleDescriptions" : [
      {
        "id" : "Downy mildew",
        "imageId" : "\/obj-image\/blog\/diagnose_long_downy_mildew_main.jpg",
        "text" : "Pseudoperonospora cubensis is known to cause downy mildew in plants. It thrives in humid and wet conditions. It manifests itself in the form of pale to yellow spots on upper foliage that later turn brown. A purple fuzz can also appear on the undersides of the leaves in high humidity. This disease can be treated in its first stages with the help of special fungicides. Make sure to buy disease-resistant varieties to avoid this disease.",
        "title" : "Downy mildew"
      },
      {
        "text" : "Peronospora tabacina causes blue mold on tobacco plants. If left untreated, it can result in total crop failure. The symptoms of this disease include yellow spots that quickly become necrotic. A bluish mildew appears on the undersides of the infected leaves. It deforms and reduces the number of leaves and causes cankers on stems. Make sure to buy disease-resistant varieties only to avoid this disease.",
        "title" : "Blue mold"
      }
    ],
    "id" : "Peronosporea",
    "imageId" : "\/obj-image\/blog\/diagnose_short_peronosporea_main.jpg",
    "symptoms" : "Pale spots that later turn brown, fuzzy growth",
    "text" : "Peronosporea, also known as Peronospora, is a genus of oomycetes (fungus-like organisms). They spend a big part of their life cycle inside their host plant. Peronospora is a seed-borne pathogen, so it’s usually transmitted by planting infected seeds. That’s why gardeners should always check seeds before buying and opt for disease-resistant varieties. However, there are Peronospora species that can be dispersed through wind currents and enter the soil through infected water.",
    "title" : "Peronosporea"
  },
  {
    "articleDescriptions" : [
      {
        "text" : "Plants can stop flowering prematurely or lose their buds due to fungal infections. Usually, fungi affect all parts of the plant, so it’s not hard to identify what’s wrong with your plant. Once you’ve found out what fungal infection is causing trouble, tackle the issue with the help of special disease control. Make sure to take good care of your plant all year round to avoid this problem.",
        "title" : "Fungal diseases"
      },
      {
        "text" : "If your plant’s natural physiological processes are disturbed, this will negatively affect the overall state of your plant and stop it from flowering. You need to find out what exactly is bothering your plant: improper care, poor watering, compacted soil, nutrient deficiency, lack of light, drafts, overcooling, or environmental stress. Eliminate the cause disturbing your plant, and it’ll come back to normal in a few days if it wasn’t severely damaged.",
        "title" : "Physiological processes"
      }
    ],
    "id" : "Finished flowering period",
    "imageId" : "\/obj-image\/blog\/diagnose_short_finished_flowering_period_main.jpg",
    "symptoms" : "Flowers close and fall off",
    "text" : "Finished flowering period is a part of the physiological process plants go through during their life cycle. If fertilized, flowers don’t fall off and die, they develop into fruits. When your plant finishes flowering, you should remove spent blooms so that your plant can save energy for next year’s flowers. At the end of spring, the foliage will die naturally, too. When leaves turn brown or yellow, remove them to prevent the development of fungal diseases.\n\nThe duration of a plant’s life cycle depends on its type. If you have an annual plant, you can try harvesting its seeds and planting them anew. Biennials can be kept for another year. Perennials have the longest lifespan, repeating their blooming cycle every flowering season until they eventually die.",
    "title" : "Finished flowering period"
  },
  {
    "articleDescriptions" : [
      {
        "text" : "Pests transmit diseases and make plants vulnerable to infections due to the mechanical damage they inflict during feeding. Make sure to control pest populations in your garden to avoid this problem. Use neem oil, insecticidal soap, or specially formulated pesticides to get rid of unwanted insects. Non-chemical ways of pest control include proper care, good air circulation, adequate watering and sunlight, as well as introduction of beneficial insects that prey on harmful pests.",
        "title" : "Diseases"
      },
      {
        "id" : "Aphididae",
        "imageId" : "\/obj-image\/blog\/diagnose_long_aphididae_main.jpg",
        "text" : "Aphids (Aphididae) feed on the juice of young shoots and secrete a sugary liquid known as honeydew. Honeydew attracts ants that gather it for food, so if the affected plant grows outdoors, you can always see ants crowding around it. Aphids reproduce very quickly, forming entire colonies. Some aphid species can spread plant viruses and cause galls.",
        "title" : "Aphididae"
      },
      {
        "id" : "Pseudococcidae",
        "imageId" : "\/obj-image\/blog\/diagnose_long_pseudococcidae_main.jpg",
        "text" : "Mealybugs (Pseudococcidae) cause damage to plants by sucking juice out of them. Mealybugs appear on plants as fuzzy white bugs. Even though adult mealybugs don’t feed on plants, they can spread fungal diseases and transmit larvae of other pests. Larvae of mealybugs, on the other hand, suck the juice from the plant and secrete a sugary liquid, known as honeydew, that encourages the development of fungal diseases. Mealybugs tend to spread very quickly and form colonies.",
        "title" : "Pseudococcidae"
      },
      {
        "id" : "Whiteflies",
        "imageId" : "\/obj-image\/blog\/diagnose_long_whiteflies_main.jpg",
        "text" : "These soft-bodied, winged insects affect a wide range of plants, attaching to the undersides of leaves. They pierce plant tissue to suck up plant sap, and, in turn, produce honeydew. Honeydew attracts other pests and promotes the development of diseases like sooty mold. Whiteflies weaken plants, causing them to stunt, shrivel, and lose foliage.",
        "title" : "Whiteflies"
      },
      {
        "id" : "Tetranychidae",
        "imageId" : "\/obj-image\/blog\/diagnose_long_tetranychidae_main.jpg",
        "text" : "Spider mites (Tetranychidae) are tiny destructive pests. These annoying little arachnids suck out the juice of the plant and release poisonous liquid, creating a favorable environment  for pathogenic fungi. Spider mites affect almost all types of plants: flower crops, cereals, vines, fruit plants, berries, and vegetable crops.",
        "title" : "Tetranychidae"
      },
      {
        "id" : "Sooty mould",
        "imageId" : "\/obj-image\/blog\/diagnose_long_sooty_mould_main.jpg",
        "text" : "This is an infectious plant disease caused by microscopic fungi. Sooty mould can be caused by aphids, whiteflies, and mealybugs. The fungus can also appear on the plants already affected by other diseases.",
        "title" : "Sooty mould"
      }
    ],
    "id" : "Impact of sap-sucking insect",
    "imageId" : "\/obj-image\/blog\/diagnose_short_impact_of_sap_sucking_insect_main.jpg",
    "symptoms" : "Stickiness, black coating, shriveling leaves",
    "text" : "Pests are one of the most common problems encountered by plant owners. Not only do they stunt the growth of plants but also cause visible damage to them, which takes a toll on their ornamental qualities. \n\nAt first, a plant affected by sucking pests will feel sticky to the touch. With time, it’ll develop a black coating—this is black sooty mold that thrives due to the excretions left by the insects. If sucking insects attack a succulent plant, its leaves will start shriveling and falling off. Some insects like to feed on inner leaf tissue—they leave yellow, white, or gray dots on the foliage and cause it to turn brown and die over time. Aphids, mealybugs, whiteflies, and spider mites are some of the most harmful sucking insects.",
    "title" : "Impact of sap-sucking insect"
  },
  {
    "articleDescriptions" : [
      {
        "text" : "Alternaria can be easily recognized by the appearance of small dark circles on leaves. As the disease progresses, they can change their color to tan or gray, surrounded by a distinctive yellow halo. These spots can develop some fuzz on top of them. Both chemical and non-chemical measures need to be taken to treat this infection. For Alternaria control, use liquid copper fungicides every 7 to 10 days until the symptoms of the disease are completely gone.",
        "title" : "Alternaria black mold"
      },
      {
        "text" : "Stem canker is a disease caused by A. alternata f. sp. Lycopersici pathogen that mostly affects tomatoes. Its symptoms include cankers on leaves, stems, and even fruit. In greenhouses and seedbeds, this disease can cause a lot of damage. Luckily, most commercial varieties of tomatoes are resistant to stem canker, so it’s not usually a problem for home gardeners.",
        "title" : "Stem canker"
      },
      {
        "text" : "As with most Alternaria diseases, the tell-tale symptoms of this infection are dark circular spots surrounded by a yellow halo. Over time, these spots merge together, scorching the entire surface of the leaf. Use fungicides to control this disease before it spreads. Make sure to avoid overhead watering, high humidity, and poor airflow around plants.",
        "title" : "Alternaria leaf spot"
      }
    ],
    "id" : "Alternaria black molds and stem cankers",
    "imageId" : "\/obj-image\/blog\/diagnose_short_alternaria_black_molds_and_stem_cankers_main.jpg",
    "symptoms" : "Dark lesions on ripe fruit, brown or black cankers",
    "text" : "Alternaria black molds and stem cankers are caused by fungal pathogens. Cankers appear on stems, leaves, and fruit, have dark brown to black color, and can lead to the death of a plant. Black molds appear as light to dark brown lesions on the surface of ripe fruits.",
    "title" : "Alternaria black molds and stem cankers"
  },
  {
    "articleDescriptions" : [
      {
        "id" : "Bacterial canker",
        "imageId" : "\/obj-image\/blog\/diagnose_long_bacterial_canker_main.jpg",
        "text" : "The disease spreads rapidly if the plant has been damaged or affected by low temperatures, hail, or pests. Bacterial canker stunts the plant’s growth. Leaves develop spots of various shapes and colors that turn into holes as the disease progresses. The affected foliage becomes deformed, withers away, and falls off. If heavily affected by the disease, the plant dies. In houseplants, bacterial canker manifests itself in root crown, stem, root, tuber, and bulb tumors. Succulents, begonias, kalanchoes, and roses are most prone to bacterial canker.",
        "title" : "Bacterial canker"
      },
      {
        "text" : "Trees and shrubs are usually most affected by this disease. Once infected, the bark develops sunken areas that eventually engulf the whole branch, slowly killing it. New shoots grow weak and break in the wind. To stop the further spread of the infection, you need to prune cankers out of old branches and cut off young shoots. Make sure to disinfect your pruning equipment before and after use. In severe cases, we recommend uprooting the diseased plant and destroying it, replacing it with a disease-resistant variety in the future.",
        "title" : "Fungal canker"
      }
    ],
    "id" : "Canker",
    "imageId" : "\/obj-image\/blog\/diagnose_short_canker_main.jpg",
    "symptoms" : "Dead areas on stems, twigs, and trunks",
    "text" : "Cankers are areas of dead tissue infected by a bacterial or a fungal disease that can be caused by a variety of pathogens. They are most common in plants weakened by environmental stress. Cankers vary in size and shape and usually appear on bark as localized, sunken lesions.",
    "title" : "Canker"
  },
  {
    "articleDescriptions" : [
      {
        "text" : "Herbicides can contaminate soil in two cases: when applied directly to the growing medium or when they get washed off by rain. Strong wind can cause this type of herbicide damage to become airborne and spread to nearby plants. However, this is extremely rare in home gardens, as it would take applying large quantities of herbicides to achieve this result.",
        "title" : "Herbicide-contaminated soil drift"
      },
      {
        "text" : "When herbicides are applied, they vaporize and mix with air. Some formulas are more volatile than others, spreading over large distances. Always carefully read the label instructions before applying herbicides.",
        "title" : "Vapor drift"
      },
      {
        "text" : "This type of damage is the most common and harmful. Small particles are able to travel through great distances thanks to wind and rain. To avoid this problem, make sure there is a buffer zone between the treated plants and the rest of your garden.",
        "title" : "Physical spray-particle drift"
      }
    ],
    "id" : "Herbicide damage",
    "imageId" : "\/obj-image\/blog\/diagnose_short_herbicide_damage_main.jpg",
    "symptoms" : "Cupped, twisted, or discolored leaves",
    "text" : "Herbicide damage is caused by herbicides—chemical products formulated for eliminating weeds. Plants exposed to herbicides experience the following symptoms: twisted or discolored leaves, cupped foliage, stunted growth, and leaves with dead spots. In severe cases, affected plants turn brown and die. Herbicide damage can occur if the product is accidentally misapplied or if there is a strong wind that disperses it to nearby ornamental plants. To avoid this, use herbicides in windless weather.",
    "title" : "Herbicide damage"
  },
  {
    "articleDescriptions" : [
      {
        "text" : "This wheat disease is caused by Phaeosphaeria nodorum pathogen. The first symptoms of this infection appear in early spring in the form of necrotic lesions on older leaves. There are both chemical and non-chemical methods of treatment available: crop rotation, weed control, and fungicides. The earlier you start taking measures, the more chances you have to prevent this disease.",
        "title" : "Septoria nodorum blotch"
      },
      {
        "text" : "Venturia inaequalis fungus causes a plant disease called apple scab. It spreads by airborne spores, contaminating wind and water. You can recognize this disease by patches of green blotches appearing on foliage, twig blistering, and brown blotches on fruits. Make sure to provide your plant with adequate care in order to avoid this disease. You can use special fungicides to treat it. Be careful and take safety measures when dealing with chemical products.",
        "title" : "Apple scab"
      }
    ],
    "id" : "Dothideomycetes",
    "imageId" : "\/obj-image\/blog\/diagnose_short_dothideomycetes_main.jpg",
    "symptoms" : "Dying tissue, necrotic spots, stunted growth",
    "text" : "Dothideomycetes is a class that contains many fungal plant pathogens, typically causing destructive diseases in crops, such as vegetables, wheat, and corn. The most important and harmful pathogens from this class are Phaeosphaeria nodorum and Venturia inaequalis.",
    "title" : "Dothideomycetes"
  },
  {
    "articleDescriptions" : [
      {
        "id" : "Water excess and\/or uneven watering",
        "imageId" : "\/obj-image\/blog\/diadnose_long_water_excess_and_or_uneven_watering_main.jpg",
        "text" : "Excessive watering is the number one cause of root rot and fungal infections. There are several reasons why your plant might be waterlogged: you’re consistently overwatering it, the pot has poor drainage, the room where your plant is located is too humid and cool, you’re misting your plant too often or you have a wrongly sized pot that doesn’t suit your plant. Identify the main cause of the problem and resolve it as soon as possible to revive your plant.",
        "title" : "Water excess and\/or uneven watering"
      },
      {
        "id" : "Water deficiency",
        "imageId" : "\/obj-image\/blog\/diagnose_long_water_deficiency _main.jpg",
        "text" : "Under- or uneven watering makes plants susceptible to different types of fungal, bacterial, and viral infections. Underwatered plants lose their vibrant colors, droop, wilt, and eventually die. To prevent this from happening, make sure to provide your plant with an adequate watering regime that suits its needs. Establish a watering schedule and set up notifications, so you won’t forget to give your plant a drink next time.",
        "title" : "Water deficiency"
      }
    ],
    "id" : "Water-related issue",
    "imageId" : "\/obj-image\/blog\/diagnose_short_water_related_issue_main.jpg",
    "symptoms" : "Root rot, leaf discoloration, crispy leaf tips",
    "text" : "Water-related issues refer to abiotic stress caused by inadequate watering, including water excess, uneven watering, and water deficiency. Watering is a crucial part of everyday plant care routine, so it’s important to know your plant’s specific requirements to ensure its healthy growth.",
    "title" : "Water-related issue"
  },
  {
    "articleDescriptions" : [
      {
        "text" : "True bugs (Heteroptera) are small to large insects with piercing-sucking mouthparts that feed on plant sap. Several groups of Heteroptera are either aquatic or semi-aquatic. Apart from crop damaging pests, this group also includes beneficial insects, such as assassin bugs.",
        "title" : "Heteroptera"
      },
      {
        "text" : "Cicadas (Auchenorrhyncha) can be recognized by piercing-sucking mouthparts attached to the underside of the head and short antennas that resemble small bristles. An average life cycle of a cicada lasts for 17 years. The well-known sound they make in spring is actually a mating call for other cicadas. Leafhoppers are a large group of insects that comprises over 2500 species. They usually feed on vines, trees, and grass. If left unchecked, they can cause quite a lot of damage to your garden.",
        "title" : "Auchenorrhyncha"
      },
      {
        "id" : "Aphididae",
        "imageId" : "\/obj-image\/blog\/diagnose_long_aphididae_main.jpg",
        "text" : "Aphids (Aphididae) are small parasitic insects of different colors, most often greenish. They may be wingless or winged. These pests feed on the juice of young shoots and secrete a sugary liquid, known as honeydew.",
        "title" : "Aphididae"
      },
      {
        "id" : "Coccoidea",
        "imageId" : "\/obj-image\/blog\/diagnose_long_coccoidea_main.jpg",
        "text" : "Scale insects (Coccidae) are parasites that stay fixed on the batch of eggs they lay on the plant. Their bodies are protected with a waxy cover in the form of a shield. The covers can differ in size, shape, and color.",
        "title" : "Coccoidea"
      },
      {
        "id" : "Whiteflies",
        "imageId" : "\/obj-image\/blog\/diagnose_long_whiteflies_main.jpg",
        "text" : "Whiteflies (Trialeurodesvaporarium) are sucking insects that can inflict severe damage on plants. Adult whiteflies have a pair of wings covered with a powdery coating. The pest feeds on the juice of young shoots and leaves. Adult specimens secrete a sticky liquid, known as honeydew.",
        "title" : "Whiteflies"
      }
    ],
    "id" : "Hemiptera",
    "imageId" : "\/obj-image\/blog\/diagnose_short_hemiptera_main.jpg",
    "symptoms" : "Pest colonies, yellowing or browning leaves",
    "text" : "Hemiptera is a large group of insects, including 140 families with 90,000 different species. They cause direct damage to plants by feeding on sap from their tissue. This group contains major pests of crops and vectors of infectious diseases.",
    "title" : "Hemiptera"
  },
  {
    "articleDescriptions" : [
      {
        "id" : "Ascomycetes",
        "imageId" : "\/obj-image\/blog\/diagnose_short_ascomycetes_main.jpg",
        "text" : "Ascomycetes, also known as sac fungi, are fungi that belong to the Ascomycota phylum in the kingdom of Fungi. The phylum is quite large, containing more than 64,000 species. It is also rather diverse: its representatives range from widely known mushrooms, such as truffles and cup fungi, to dangerous pathogens that affect humans, animals, and plants. Among the most common plant diseases caused by Ascomycetes are powdery mildew, Dutch elm disease, and brown rot.",
        "title" : "Ascomycetes"
      },
      {
        "text" : "Blackfoot disease is a fungal disease caused by several species in the genus Cylindrocarpon. It affects grapevine trunks and makes roots develop black lesions. The disease is considered to be relatively new, so it remains largely unexplored.",
        "title" : "Black foot disease of grapevines"
      },
      {
        "text" : "Fungi in the genus Corallomycetella cause different kinds of root diseases, including violet root rot of the cacao tree, root rot of the papaya, and stinking root disease of tropical trees.",
        "title" : "Root diseases"
      },
      {
        "text" : "Fungi in the genus Zythiostroma cause uncommon but severe cankers of woody plants. Trees and shrubs are usually most affected by this disease. Once infected, the bark develops sunken areas that eventually spread to the whole branch, slowly killing it. New shoots grow weak and break in the wind. To stop further spread of the infection, prune cankers out of old branches and cut off young shoots.",
        "title" : "Fungal canker"
      }
    ],
    "id" : "Nectriaceae",
    "imageId" : "\/obj-image\/blog\/diagnose_short_nectriaceae_main.jpg",
    "symptoms" : "Brown twigs, orange spots, yellow and wilted leaves",
    "text" : "The Nectriaceae are a family of fungi that belong to Ascomycetes. The family encompasses more than 200 species of fungi, most of them being plant pathogens. Fungi of the genuses Cylindrocarpon, Corallomycetella, and Zythiostroma cause the majority of fungal diseases.",
    "title" : "Nectriaceae"
  },
  {
    "articleDescriptions" : [
      {
        "id" : "Insecta",
        "imageId" : "\/obj-image\/blog\/diagnose_wiki_insecta_main.jpg",
        "text" : "Insects account for more than 90% of the animal life forms on the Earth. Moreover, it’s the most diverse class of the kingdom Animalia. They inhabit all types of environments. Many species damage agricultural goods and are considered to be pests. People are constantly developing methods of pest management, the most popular ones being insecticides and agricultural oils. Remember that chemical insecticides don’t only eliminate harmful organisms but also damage crops and flowers, so try choosing biopesticides.",
        "title" : "Insecta"
      },
      {
        "text" : "The azalea lace bug is the common name of the variety Stephanitis pyrioides. The bugs are about 0.2 inches (3.5 to 4 mm) long and have dark brown bodies and grayish-white backs. They thrive in dry areas. Remove the damaged leaves and treat the affected plants with agricultural oil or chemical pesticides to get rid of these pests.",
        "title" : "Azalea lace bug"
      },
      {
        "text" : "Novice gardeners may confuse Stephanitis rhododendri, more commonly known as the rhododendron lace bug, with lacewings, which are beneficial insects. The pests are grayish, about 0.1 inches (3 mm) long. If your plant is infested, you will find these insects and tiny black balls (their excrements) on the undersides of the leaves. They suck the sap from the foliage, causing it to develop yellow spots. Wash the affected shrubs from the garden hose to get rid of the insects and then take preventive measures.",
        "title" : "Rhododendron lace bug"
      },
      {
        "text" : "The variety Stephanitis takeyai, also known as the andromeda lace bug, hails from Japan. However, it's spread all over the globe along with its host Japanese andromeda (Pieris japonica). The insect is about 0.1 inches (3 mm) long and has black and white wings. It causes the affected plant to develop tiny spots, and severe infestations may result in defoliation and stunted growth. Direct sunlight exposure may aggravate the damage.",
        "title" : "Andromeda lace bug"
      }
    ],
    "id" : "Stephanitis",
    "imageId" : "\/obj-image\/blog\/diagnose_short_stephanitis_main.jpg",
    "symptoms" : "Necrosis, leaf drop, wilting",
    "text" : "The genus Stephanitis encompasses more than 90 species of lace bugs in the family Tingidae, part of the class Insecta. The bugs feed on various plants, but Azalea, Rhododendron, and Andromeda shrubs are most vulnerable to these pests. You can get rid of them using chemical and biological insecticides, insecticidal soap, or neem oil. However, it’s better to encourage predatory species to kill pests and provide your plants with proper care to prevent infestations.",
    "title" : "Stephanitis"
  },
  {
    "articleDescriptions" : [
      {
        "id" : "Anthracnose",
        "imageId" : "\/obj-image\/blog\/diagnose_long_anthracnose_main.jpg",
        "text" : "Anthracnose is a plant disease caused by microscopic fungi in the Colletotrichum genus. It affects almost all plant species that grow in nurseries, greenhouses, and pots. The disease develops especially fast in hot, humid weather.",
        "title" : "Anthracnose"
      },
      {
        "id" : "Downy mildew",
        "imageId" : "\/obj-image\/blog\/diagnose_long_downy_mildew_main.jpg",
        "text" : "Downy mildew is a plant disease caused by microscopic fungi called Peronosporea. The disease is most frequently caused by improper care and pests. The fungus affects the vascular system of the whole plant, impairing its ability to transport nutrients.",
        "title" : "Downy mildew"
      },
      {
        "id" : "Fusarium wilts, blights, rots and damping-off",
        "imageId" : "\/obj-image\/blog\/diagnose_long_fusarium_wilts_blights_rots_and_damping_off_main.jpg",
        "text" : "Fusarium wilts, blights, rots, and damping-off are plant diseases caused by microscopic fungi in the Fusarium genus. The fungi affect the vascular system of the whole plant, impairing its ability to transport nutrients. Fusarium wilt affects almost all plant species, including vegetables, fruits, and berries.",
        "title" : "Fusarium wilts, blights, rots and damping-off"
      },
      {
        "id" : "Powdery mildew",
        "imageId" : "\/obj-image\/blog\/diagnose_long_powdery_mildew_main.jpg",
        "text" : "Powdery mildew is a fungal disease caused by the mycelium of the Erysiphales fungus. It’s a common disease with distinctive symptoms that are easy to identify. It affects almost all plant species: flower crops, cereals, vines, fruit plants, berries, and vegetable crops.",
        "title" : "Powdery mildew"
      },
      {
        "id" : "Rust",
        "imageId" : "\/obj-image\/blog\/diagnose_long_rust_main.jpg",
        "text" : "Rust is a plant disease caused by pathogenic microscopic fungi called Pucciniales. Rust affects almost all plant species, including vegetables, fruits, and berries. It damages plants in nursery gardens, conservatories, and greenhouses.",
        "title" : "Rust"
      },
      {
        "id" : "Alternaria black molds and stem cankers",
        "imageId" : "\/obj-image\/blog\/diagnose_short_alternaria_black_molds_and_stem_cankers_main.jpg",
        "text" : "Alternaria black molds and stem cankers are caused by fungal pathogens. Cankers appear on stems, leaves, and fruits, have dark brown to black color, and can lead to the death of a plant. Black molds appear as light to dark brown lesions on the surface of ripe fruits.",
        "title" : "Alternaria black molds and stem cankers"
      },
      {
        "id" : "Alternaria blight",
        "imageId" : "\/obj-image\/blog\/diagnose_long_alternaria_blight_main.jpg",
        "text" : "Alternaria blight is caused by the Alternaria cucumerina fungus. It’s common for most cucurbits such as melons, cucumbers, pumpkins, etc. and isn’t characteristic of fruits. The disease develops fast in the conditions of frequent rainfall and warm weather.",
        "title" : "Alternaria blight"
      }
    ],
    "id" : "Fungi",
    "imageId" : "\/obj-image\/blog\/diagnose_short_fungi_main.jpg",
    "symptoms" : "Yellow crinkled leaves, stunted growth",
    "text" : "Fungi is a kingdom that encompasses around 4 million species of organisms. Some of them are mushrooms that you can find while taking a walk in a forest, while others are pathogens that can cause various diseases in plants. Among the most common fungi that attack plants are Colletotrichum, Peronosporea, Fusarium, Erysiphales, Pucciniales, and Alternaria.",
    "title" : "Fungi"
  },
  {
    "articleDescriptions" : [
      {
        "text" : "This bacterial disease is transmitted by sharpshooters. In summer, an infected plant develops yellow or red leaf margins. Over time, the fruit shrivels, and the plant loses its foliage. There’s no effective treatment for Pierce’s disease, so if you notice these symptoms on your plant, your best bet is to remove the infected parts. Purchasing disease-resistant varieties of grapes will save you a lot of trouble. Alternatively, you can treat the area next to your grapes with insecticide to keep sharpshooters away.",
        "title" : "Pierce’s disease of grapes"
      },
      {
        "text" : "Citrus variegated chlorosis is a disease spread by sharpshooters. It manifests itself as yellowing leaves and defoliation. Yellowing usually occurs between the veins of older leaves. The fruit of an infected tree is small, has a hard rind and an acidic taste. Unfortunately, there’s no treatment for citrus variegated chlorosis. At the first symptoms of the disease, contact your local Department of Agriculture. In the most severe cases, affected trees may have to be removed. To avoid this, choose disease-resistant varieties of citrus plants.",
        "title" : "Citrus variegated chlorosis"
      },
      {
        "text" : "This is another common disease caused by Xylella fastidiosa. This pathogen is usually spread by leafhoppers and can affect a wide range of plants. The most common symptom of bacterial leaf scorch is brown leaf margins sometimes surrounded by a pale halo. Once infected, the plant can’t be cured, and the only method of control is removing the plant altogether.",
        "title" : "Bacterial leaf scorch"
      },
      {
        "text" : "This disease is caused by the pathogen Xanthomonas axonopodis. It affects citrus plants and manifests itself as lesions with brown, water-soaked margins and a yellow halo. The lesions usually appear on stems, leaves, and fruits of affected plants. Unfortunately, the only way to prevent the disease from spreading is to remove and burn the affected specimens.",
        "title" : "Citrus canker"
      }
    ],
    "id" : "Gammaproteobacteria",
    "imageId" : "\/obj-image\/blog\/diagnose_short_gammaproteobacteria_main.jpg",
    "symptoms" : "Lesions on leaves, stems, and fruit",
    "text" : "Gammaproteobacteria is a diverse class of bacteria. Among its 250 genera, there are many microorganisms that play a key role in medicine and science, such as Enterobacteriaceae and Pseudomonadaceae. However, several common plant pathogens also belong to the Gammaproteobacteria class, such as Xylella fastidiosa, responsible for Pierce’s disease of grapes, citrus variegated chlorosis, and other diseases. Other plant pathogens in this class include Xanthomonas and Pseudomonas syringae.",
    "title" : "Gammaproteobacteria"
  },
  {
    "articleDescriptions" : [
      {
        "id" : "Ascomycetes",
        "imageId" : "\/obj-image\/blog\/diagnose_short_ascomycetes_main.jpg",
        "text" : "Ascomycetes, also known as sac fungi, are fungi that belong to the Ascomycota phylum in the kingdom of Fungi. The phylum is quite large, containing more than 64,000 species. This phylum is quite diverse: its representatives range from widely known mushrooms, such as truffles and cup fungi, to dangerous pathogens that affect humans, animals, and plants.",
        "title" : "Ascomycetes"
      },
      {
        "id" : "Septoria leaf spot",
        "imageId" : "\/obj-image\/blog\/diagnose_long_septoria_leaf_spot_main.jpg",
        "text" : "Septoria leaf spot is a fungal disease caused by Septoria lycopersici. It affects tomatoes and potatoes, resulting in total crop failure if left untreated.",
        "title" : "Septoria leaf spot"
      },
      {
        "text" : "Tomato leaf mold is caused by the Passalora fulva pathogen. An infected tomato plant develops small spots with yellow margins on its foliage. The undersides of the affected leaves turn pale or purple. Over time, leaves turn yellow or brown, curl, and fall off. If you notice these symptoms, treat your plant with an appropriate fungicide.",
        "title" : "Tomato leaf mold"
      },
      {
        "id" : "Cercospora leaf spot",
        "imageId" : "\/obj-image\/blog\/diagnose_long_cercospora_leaf_spot_main.jpg",
        "text" : "Cercospora leaf spot is an infectious disease caused by the parasitic fungi of the Cercospora genus. The disease thrives during warm and humid nights, when the fungal spores spread freely through the air.",
        "title" : "Cercospora leaf spot"
      }
    ],
    "id" : "Mycosphaerellaceae",
    "imageId" : "\/obj-image\/blog\/diagnose_short_mycosphaerellaceae_main.jpg",
    "symptoms" : "Brown, black, or yellow spots on foliage and fruit",
    "text" : "Mycosphaerellaceae are a family of sac fungi that belongs to Ascomycetes. This family includes some of the most widespread plant pathogens, such as Phaeoramularia dissiliens, Cladosporium fulvum, and Septoria.",
    "title" : "Mycosphaerellaceae"
  },
  {
    "articleDescriptions" : [
      {
        "id" : "Ascomycetes",
        "imageId" : "\/obj-image\/blog\/diagnose_short_ascomycetes_main.jpg",
        "text" : "Ascomycetes, also known as sac fungi, are fungi that belong to the Ascomycota phylum in the kingdom of Fungi. The phylum is quite large, containing more than 64,000 species. This phylum is quite diverse: its representatives range from widely known mushrooms, such as truffles and cup fungi, to dangerous pathogens that affect humans, animals, and plants.",
        "title" : "Ascomycetes"
      },
      {
        "id" : "Leotiomycetes",
        "imageId" : "\/obj-image\/blog\/diagnose_wiki_leotiomycetes_main.jpg",
        "text" : "Leotiomycetes are a class of fungi in the Ascomycetes division. This class contains a number of common plant pathogens.",
        "title" : "Leotiomycetes"
      },
      {
        "id" : "Gray mold",
        "imageId" : "\/obj-image\/blog\/diagnose_long_gray_mold_main.jpg",
        "text" : "Gray mold is a plant disease caused by the microscopic parasitic fungus Botrytis. The fungus affects the vascular system of the whole plant, impairing its ability to transport nutrients. Without proper treatment, infected plants may die.",
        "title" : "Gray mold"
      },
      {
        "text" : "This disease is caused by the Botrytis fabae fungus that primarily attacks broad beans. If infected, the plant will develop small brown or red spots on its foliage, stems, and flowers. Over time, these spots enlarge, and the affected leaves and flowers fall off. If you notice these symptoms, treat the plant with an appropriate fungicide.",
        "title" : "Chocolate spot disease"
      },
      {
        "text" : "The only thing that can cause onion leaf blight is a fungus called Botrytis squamosa. This disease manifests itself as elongated, white lesions with a green halo. To combat the disease, apply an appropriate fungicide.",
        "title" : "Onion leaf blight"
      },
      {
        "text" : "Caused by the Botryotinia polyblastis, Narcissus fire is a common disease among daffodils. The first signs of this disease are water-soaked spots along petal edges. Over time, they grow and turn brown. The foliage is affected, too: it develops small, gray spots that enlarge and turn brown. After a while, the infected leaves turn yellow and die. Applying an appropriate fungicide is the best means of control in this case.",
        "title" : "Narcissus fire of daffodils"
      },
      {
        "text" : "Brown rot caused by Monilinia fructicola usually occurs in stone fruits and affects twigs, flowers, and fruits. As a rule, infected flowers wilt and develop a gray coating, while twigs are damaged by cankers. The fruit of an infected plant displays small, brown spots, and the rotten areas are speckled with gray spores. Use a fungicide to treat an affected plant.",
        "title" : "Brown rot"
      },
      {
        "text" : "White mold is a fungal disease caused by Sclerotinia sclerotiorum. This disease is easily recognizable by white, cottony coating on the affected parts. Treat infected plants with fungicides.",
        "title" : "White mold"
      }
    ],
    "id" : "Sclerotiniaceae",
    "imageId" : "\/obj-image\/blog\/diagnose_short_sclerotiniaceae_main.jpg",
    "symptoms" : "Yellowing, wilting, stunted growth, dieback",
    "text" : "Sclerotiniaceae are a family of fungi in the Ascomycetes division. Among the members of this family are some of the most common plant pathogens, such as Botrytis, Monilinia, and Sclerotinia.",
    "title" : "Sclerotiniaceae"
  },
  {
    "articleDescriptions" : [
      {
        "id" : "Aphididae",
        "imageId" : "\/obj-image\/blog\/diagnose_long_aphididae_main.jpg",
        "text" : "Aphids (Aphididae) are small parasitic insects of different colors, commonly greenish. They may be either wingless or winged. These pests feed on the juice of young shoots and secrete a sugary liquid, known as honeydew. It attracts ants seeking food, so if the affected plant grows outdoors, you can always see them crowding around it. Aphids reproduce rapidly, forming entire colonies. Some aphid species can spread plant viruses and cause galls.",
        "title" : "Aphididae"
      },
      {
        "id" : "Coccoidea",
        "imageId" : "\/obj-image\/blog\/diagnose_long_coccoidea_main.jpg",
        "text" : "Scale insects (Coccoidea) are parasites that stay fixed on the batch of eggs they lay on the plant. Their bodies are protected with a waxy cover in the form of a shield, which can differ in size, shape, and color. The cover of a soft scale isn’t attached to its body and can be easily removed, unlike that of an armored scale.",
        "title" : "Coccoidea"
      },
      {
        "id" : "Whiteflies",
        "imageId" : "\/obj-image\/blog\/diagnose_long_whiteflies_main.jpg",
        "text" : "Whiteflies are sucking insects that can inflict severe damage on plants. Adult whiteflies have a pair of wings covered with a powdery coating. They secrete a sticky liquid, known as honeydew. The pest feeds on the juice of young shoots and leaves.",
        "title" : "Whiteflies"
      },
      {
        "id" : "Pseudococcidae",
        "imageId" : "\/obj-image\/blog\/diagnose_long_pseudococcidae_main.jpg",
        "text" : "Mealybugs (Pseudococcidae) are common sucking pests that consume plant sap. They look like tiny pieces of cotton and can usually be found in crevices and on young leaves. Mealybugs excrete a sticky substance called honeydew.",
        "title" : "Pseudococcidae"
      }
    ],
    "id" : "Homoptera",
    "imageId" : "\/obj-image\/blog\/diagnose_wiki_homoptera_main.jpg",
    "symptoms" : "Pest colonies, stunted growth, distorted foliage",
    "text" : "Homoptera is a group of insects in the Hemiptera order. It encompasses more than 32,000 species of sucking insects, including common plant pests, such as aphids, scale insects, whiteflies, and mealybugs.",
    "title" : "Homoptera"
  },
  {
    "articleDescriptions" : [
      {
        "id" : "Aphididae",
        "imageId" : "\/obj-image\/blog\/diagnose_long_aphididae_main.jpg",
        "text" : "Aphids (Aphididae) feed on the juice of young shoots and secrete a sugary liquid known as honeydew. Honeydew attracts ants that gather it for food, so if the affected plant grows outdoors, you can always see ants crowding around it. Aphids reproduce very quickly, forming entire colonies. Some aphid species can spread plant viruses and cause galls.",
        "title" : "Aphididae"
      },
      {
        "id" : "Thysanoptera",
        "imageId" : "\/obj-image\/blog\/diagnose_long_thysanoptera_main.jpg",
        "text" : "Thrips (Thysanoptera) are small insect parasites recognizable by their spindle-shaped, transversally segmented bodies and antennae on their heads. Their legs end in suckers that make thrips excellent jumpers. Their color and size may vary. Thrips are prevalent, dangerous, omnivorous insects that feed on both cultivated and wild plants. Thrips' diet mainly consists of sap. Vegetative organs of a plant punctured by the pest's mouthparts display streaks. Leaves of the affected plant are covered with the insect's excretions and shed skins. Almost all plant species, including flowers, fruits, berries, and vegetables, are susceptible to thrips.",
        "title" : "Thysanoptera"
      },
      {
        "id" : "Impact of sap-sucking insect",
        "imageId" : "\/obj-image\/blog\/diagnose_short_impact_of_sap_sucking_insect_main.jpg",
        "text" : "Pests are one of the most common problems encountered by plant owners. Not only do they stunt the growth of plants but also cause visible damage to them, which takes a toll on their ornamental qualities. \n\nAt first, a plant affected by sucking pests will feel sticky to the touch. With time, it’ll develop a black coating—this is black sooty mold that thrives due to the excretions left by the insects. If sucking insects attack a succulent plant, its leaves will start shriveling and falling off. Some insects like to feed on inner leaf tissue—they leave yellow, white, or gray dots on the foliage and cause it to turn brown and die over time. Aphids, mealybugs, whiteflies, and spider mites are some of the most harmful sucking insects.",
        "title" : "Impact of sap-sucking insect"
      },
      {
        "id" : "Coccoidea",
        "imageId" : "\/obj-image\/blog\/diagnose_long_coccoidea_main.jpg",
        "text" : "Scale insects (Coccidae) are parasites that stay fixed on the batch of eggs they laid on the plant. Their bodies are protected with a waxy cover in the form of a shield. The covers can differ in size, shape, and color. The cover of a soft scale isn’t attached to its body and can be easily removed, unlike that of an armored scale. \n\nYoung larvae of this pest are highly mobile. They quickly disperse all over the plant, stick to its leaves, shoots, stems, and buds, feeding on its juice. On indoor plants, these pests can be active all year round.\n\nThe larvae and adult females excrete sticky, sugary honeydew, which creates the perfect environment for sooty mold. As a result, the affected plant develops a dry sooty coating.",
        "title" : "Coccoidea"
      },
      {
        "id" : "Feeding damage by insects",
        "imageId" : "\/obj-image\/blog\/diagnose_short_feeding_damage_by_insects_main.jpg",
        "text" : "Feeding damage by insects includes holes or notches in leaves, removal of the tissue between leaf veins, tunnels in the plant tissue, root consumption, and other types of mechanical damage. It’s mainly caused by insects with chewing mouthparts: caterpillars, beetles, and grasshoppers. Some even bore tunnels into the plant tissue, deforming stems and creating holes in the leaves.",
        "title" : "Feeding damage by insects"
      },
      {
        "text" : "Leaf-mining flies and moths are small light- or dark-colored pests that infest crops and wild plants. Female leaf miners feed on the sap of young shoots, while their larvae consume leaf tissue by “mining” through it.\n\nA female leaf miner pierces a leaf and lays eggs into its pulp. The larvae that emerge from the eggs nourish themselves by gnawing out tunnels in the leaves. Over time, the leaf-mining fly larvae burrow themselves into the soil and pupate. The larvae of leaf-mining moths form cocoons right on the affected foliage. Adult insects emerge from chrysalises.",
        "title" : "Leaf miner"
      },
      {
        "id" : "Pseudococcidae",
        "imageId" : "\/obj-image\/blog\/diagnose_long_pseudococcidae_main.jpg",
        "text" : "Mealybugs (Pseudococcidae)  are some of the most dangerous houseplant pests. They cause damage to plants by sucking juice out of them. Mealybugs appear on plants as fuzzy white bugs. Wingless females are similar to their larvae, whereas males resemble mosquitoes or flies. Even though adult mealybugs don’t feed on plants, they can spread fungal diseases and transmit larvae of other pests. Larvae of mealybugs, on the other hand, suck the juice from the plant and secrete a sugary liquid, known as honeydew, that encourages the development of fungal diseases. Mealybugs tend to spread very quickly and form colonies.",
        "title" : "Pseudococcidae"
      }
    ],
    "id" : "Insecta",
    "imageId" : "\/obj-image\/blog\/diagnose_wiki_insecta_main.jpg",
    "symptoms" : "Holes in leaves, yellowing and wilting foliage",
    "text" : "Insecta is a class consisting of major plant pests, such as aphids and thrips. Damage can be caused by both larvae and adult bugs. Insects cause feeding damage, transmit bacterial, viral, and fungal infections.",
    "title" : "Insecta"
  },
  {
    "articleDescriptions" : [
      {
        "id" : "Powdery mildew",
        "imageId" : "\/obj-image\/blog\/diagnose_long_powdery_mildew_main.jpg",
        "text" : "Powdery mildew is a fungal disease caused by the mycelium of the Erysiphales fungus. It’s a common disease with distinctive symptoms that are easy to identify. It affects almost all plant species: flower crops, cereals, vines, fruit plants, berries, and vegetable crops. To protect and treat your berries, fruits, vegetables, and other plants in your garden from powdery mildew, spray them with colloidal sulphur, copper sulphate, copper chloride or other substances containing iron, copper, or zinc. You can also apply biofungicides—biological plant protection products.",
        "title" : "Powdery mildew"
      },
      {
        "id" : "Gray mold",
        "imageId" : "\/obj-image\/blog\/diagnose_long_gray_mold_main.jpg",
        "text" : "Gray mold is a plant disease caused by the microscopic parasitic fungus Botrytis. The fungus affects the vascular system of the whole plant, impairing its ability to transport nutrients. The disease affects almost all plant species: vegetable crops, fruit trees, and berry plants; it harms plants in nurseries, conservatories, greenhouses, and potted crops. Without proper treatment, infected plants may die.",
        "title" : "Gray mold"
      }
    ],
    "id" : "Leotiomycetes",
    "imageId" : "\/obj-image\/blog\/diagnose_wiki_leotiomycetes_main.jpg",
    "symptoms" : "White mold on stalks, leaves, and young shoots",
    "text" : "Leotiomycetes are a class of ascomycete fungi that cause many serious plant diseases, such as powdery mildew and gray mold. The symptoms usually appear on the surface of the plant.",
    "title" : "Leotiomycetes"
  },
  {
    "articleDescriptions" : [
      {
        "text" : "These light-brown pests with sucking piercing mouthparts flood homes as soon as fall sets in, seeking refuge from the frost. Just like moths, they gravitate toward light sources. Stink bugs can damage ornamental plants, trees, and shrubs. If you want to avoid these pests, you need to seal all openings and cracks as well as apply a pest-repellent on them. If stink bugs have already attacked your home and your plants, apply specially designed insecticides to resolve this issue.",
        "title" : "Stink bugs"
      }
    ],
    "id" : "Pentatomidae",
    "imageId" : "\/obj-image\/blog\/diagnose_wiki_pentatomidae_main.jpg",
    "symptoms" : "Deformed fruits, stunted growth, skeletonized leaves",
    "text" : "Pentatomidae are sucking pests that produce a sticky honeydew and emit an unpleasant odor as a defense mechanism. They cause wilting, stunted growth, yellow or white blotches on leaves, and black pits on nuts.",
    "title" : "Pentatomidae"
  },
  {
    "articleDescriptions" : [
      {
        "id" : "Downy mildew",
        "imageId" : "\/obj-image\/blog\/diagnose_long_downy_mildew_main.jpg",
        "text" : "Downy mildew is a plant disease caused by microscopic fungi called Peronosporosis. The disease is most frequently caused by improper care and pests. The fungus affects the vascular system of the whole plant, impairing its ability to transport nutrients. Downy mildew is a dangerous disease that can kill your plant if left untreated. Make sure to isolate the infected houseplant from other plants to prevent the fungus from migrating to healthy specimens. Feed the affected plant with phosphate-potassium fertilizers. Stop using nitrogen plant food for a while. In case of severe damage, destroy the affected plant. When choosing cultivars, go for fungi- and pest-resistant ones.",
        "title" : "Downy mildew"
      }
    ],
    "id" : "Peronosporaceae",
    "imageId" : "\/obj-image\/blog\/diagnose_wiki_peronosporaceae_main.jpg",
    "symptoms" : "Pale spots that later turn brown, fuzzy growth",
    "text" : "Pathogens from the Peronosporaceae family are fungi-like water molds, causing infectious plant diseases called downy mildews. Usually, they form typical spores-containing structures on the downside of the leaves. If left untreated, diseases induced by Peronosporaceae could be lethal to your plants.",
    "title" : "Peronosporaceae"
  },
  {
    "articleDescriptions" : [
      {
        "text" : "Phyllody is a phytoplasma-induced disease that causes an abnormal development of floral parts of the plant. The entire flower or some of its parts are replaced with leaf-like structures. The main symptoms of the disease are phyllody, plant virescence, yellowing, and cracking of seed capsules. Unfortunately, there is no effective cure for phyllody disease. To avoid phyllody, make sure to take good care of your plant, do yearly prunings, avoid using contaminated soil and tools. Don’t propagate plants that have been already infected.",
        "title" : "Phyllody disease"
      },
      {
        "id" : "Aster yellows",
        "imageId" : "\/obj-image\/blog\/diagnose_long_aster_yellows_main_2.jpg",
        "text" : "Aster yellows is a chronic bacterial disease caused by phytoplasmas. This bacterial disease causes the flowers and leaves to deform and lose their color. Kill the pathogen by applying a special fungicide. If the disease has already gone out of control, remove the infected plant altogether to prevent further spread of the disease.",
        "title" : "Aster yellows"
      }
    ],
    "id" : "Phytoplasma",
    "imageId" : "\/obj-image\/blog\/diagnose_wiki_phytoplasma_main.jpg",
    "symptoms" : "Yellowing of leaves, stunted growth, unripened fruit",
    "text" : "Phytoplasmas are pest-induced parasites that cause bacterial diseases in plants. Symptoms include abnormal floral organ development, smaller leaves and their yellowing, and bushy appearance of plant organs called witches’ brooms.",
    "title" : "Phytoplasma"
  },
  {
    "articleDescriptions" : [
      {
        "text" : "This is a plant pathogen that affects a wide range of species. It enters the plant through necrotic spots or leaf stomata. It causes the development of leaf spots and cankers. Pseudomonas syringae is a hardy bacterium that can survive even in freezing temperatures. Unfortunately, there is no effective treatment for this disease. You need to provide your plant with proper care and avoid stress to prevent it. A bactericide treatment can also help at the earlier stages of the disease.",
        "title" : "Pseudomonas syringae"
      },
      {
        "text" : "Besides plants, this bacterium induces diseases in people and animals. In plants, it causes soft rot and hinders seed germination. It can contaminate both soil and water. Once the disease enters your plant, there is hardly anything you can do to treat it. That’s why you need to do your best to avoid it: practice proper plant care and don’t use contaminated soil and water.",
        "title" : "Pseudomonas aeruginosa"
      }
    ],
    "id" : "Pseudomonas",
    "imageId" : "\/obj-image\/blog\/diagnose_wiki_pseudomonas_main.jpg",
    "symptoms" : "Round spots with yellow halos",
    "text" : "Bacteria from the Pseudomonas genus cause harmful diseases on a variety of plants. Their possible symptoms include leaf and stem spots, cankers, blisters on fruits, soft rot, and galls.",
    "title" : "Pseudomonas"
  },
  {
    "articleDescriptions" : [
      {
        "id" : "Rust",
        "imageId" : "\/obj-image\/blog\/diagnose_long_rust_main.jpg",
        "text" : "Rust is a plant disease caused by pathogenic microscopic fungi (Pucciniales). Rust affects almost all plant species, including vegetables, fruits, and berries. It damages plants in nursery gardens, conservatories, and greenhouses. Plants affected by rust develop slightly raised rusty spots on the foliage, slow down their growth, and eventually die. Rust is a harmful fungal disease that can kill your plant if left untreated. Make sure to follow all the necessary recommendations to keep your plant happy and healthy: establish an adequate care routine, control pests and weeds, and provide good air circulation. In case of severe damage, discard the infected plant.",
        "title" : "Rust"
      },
      {
        "id" : "Daylily rust",
        "imageId" : "\/obj-image\/blog\/diagnose_long_daylily_rust_main.jpg",
        "text" : "Daylily rust is a disease that infects daylilies. The sole cause of the disease is the pathogen Puccinia hemerocallidis that is usually spread by wind, rain, or through unsterilized tools. An infected plant develops yellow spots on leaves that may turn orange. As the disease progresses, the infected foliage dries up. Though non-lethal, daylily rust can quickly spread all around the garden, especially if it’s provided with favorable conditions. Your best bet is to plant disease-resistant varieties—this will keep your daylily garden healthy and happy at all times.",
        "title" : "Daylily rust"
      },
      {
        "id" : "Chrysanthemum white rust",
        "imageId" : "\/obj-image\/blog\/diagnose_long_chrysanthemum_white_rust_main.jpg",
        "text" : "Chrysanthemum white rust is a fungal disease caused by the pathogen Puccinia horiana. This disease is highly contagious and spreads rather quickly in greenhouses. It seriously weakens plants, stunting their growth. Chrysanthemum white rust is a dangerous disease that is easier to prevent rather than cure. Follow all the necessary recommendations to avoid it in the future and buy only disease-resistant plants.",
        "title" : "Chrysanthemum white rust"
      }
    ],
    "id" : "Puccinia",
    "imageId" : "\/obj-image\/blog\/diagnose_wiki_puccinia_main.jpg",
    "symptoms" : "Uredial postules on the leaf surface",
    "text" : "Puccinia is a genus of fungi that cause plant diseases called rust. It contains approximately 4000 different species. It’s connected to the Pucciniales order and Pucciniaceae family.",
    "title" : "Puccinia"
  },
  {
    "articleDescriptions" : [
      {
        "id" : "Rust",
        "imageId" : "\/obj-image\/blog\/diagnose_long_rust_main.jpg",
        "text" : "Rust is a plant disease caused by pathogenic microscopic fungi (Pucciniales). Rust affects almost all plant species, including vegetables, fruits, and berries. It damages plants in nursery gardens, conservatories, and greenhouses. Plants affected by rust develop slightly raised rusty spots on the foliage, slow down their growth, and eventually die. Rust is a harmful fungal disease that can kill your plant if left untreated. Make sure to follow all the necessary recommendations to keep your plant happy and healthy: establish an adequate care routine, control pests and weeds, and provide good air circulation. In case of severe damage, discard the infected plant.",
        "title" : "Rust"
      },
      {
        "id" : "Daylily rust",
        "imageId" : "\/obj-image\/blog\/diagnose_long_daylily_rust_main.jpg",
        "text" : "Daylily rust is a disease that infects daylilies. The sole cause of the disease is the pathogen Puccinia hemerocallidis that is usually spread by wind, rain, or through unsterilized tools. An infected plant develops yellow spots on leaves that may turn orange. As the disease progresses, the infected foliage dries up. Though non-lethal, daylily rust can quickly spread all around the garden, especially if it’s provided with favorable conditions. Your best bet is to plant disease-resistant varieties—this will keep your daylily garden healthy and happy at all times.",
        "title" : "Daylily rust"
      },
      {
        "id" : "Chrysanthemum white rust",
        "imageId" : "\/obj-image\/blog\/diagnose_long_chrysanthemum_white_rust_main.jpg",
        "text" : "Chrysanthemum white rust is a fungal disease caused by the pathogen Puccinia horiana. This disease is highly contagious and spreads rather quickly in greenhouses. It seriously weakens plants, stunting their growth. Chrysanthemum white rust is a dangerous disease that is easier to prevent rather than cure. Follow all the necessary recommendations to avoid it in the future and buy only disease-resistant plants.",
        "title" : "Chrysanthemum white rust"
      }
    ],
    "id" : "Pucciniaceae",
    "imageId" : "\/obj-image\/blog\/diagnose_wiki_pucciniaceae_main.jpg",
    "symptoms" : "Yellow flecks on leaves, rust-infected turf",
    "text" : "Pucciniaceae is a family of fungi that cause rust in many different plants, most commonly in cereals. This family contains 20 genera and 4900 different species. Most well-known genera of this family are Puccinia and Uromyces.",
    "title" : "Pucciniaceae"
  },
  {
    "articleDescriptions" : [
      {
        "id" : "Rust",
        "imageId" : "\/obj-image\/blog\/diagnose_long_rust_main.jpg",
        "text" : "Rust is a plant disease caused by pathogenic microscopic fungi (Pucciniales). Rust affects almost all plant species, including vegetables, fruits, and berries. It damages plants in nursery gardens, conservatories, and greenhouses. Plants affected by rust develop slightly raised rusty spots on the foliage, slow down their growth, and eventually die. Rust is a harmful fungal disease that can kill your plant if left untreated. Make sure to follow all the necessary recommendations to keep your plant happy and healthy: establish an adequate care routine, control pests and weeds, and provide good air circulation. In case of severe damage, discard the infected plant.",
        "title" : "Rust"
      },
      {
        "id" : "Daylily rust",
        "imageId" : "\/obj-image\/blog\/diagnose_long_daylily_rust_main.jpg",
        "text" : "Daylily rust is a disease that infects daylilies. The sole cause of the disease is the pathogen Puccinia hemerocallidis that is usually spread by wind, rain, or through unsterilized tools. An infected plant develops yellow spots on leaves that may turn orange. As the disease progresses, the infected foliage dries up. Though non-lethal, daylily rust can quickly spread all around the garden, especially if it’s provided with favorable conditions. Your best bet is to plant disease-resistant varieties—this will keep your daylily garden healthy and happy at all times.",
        "title" : "Daylily rust"
      },
      {
        "id" : "Chrysanthemum white rust",
        "imageId" : "\/obj-image\/blog\/diagnose_long_chrysanthemum_white_rust_main.jpg",
        "text" : "Chrysanthemum white rust is a fungal disease caused by the pathogen Puccinia horiana. This disease is highly contagious and spreads rather quickly in greenhouses. It seriously weakens plants, stunting their growth. Chrysanthemum white rust is a dangerous disease that is easier to prevent rather than cure. Follow all the necessary recommendations to avoid it in the future and buy only disease-resistant plants.",
        "title" : "Chrysanthemum white rust"
      }
    ],
    "id" : "Pucciniales",
    "imageId" : "\/obj-image\/blog\/diagnose_wiki_pucciniales_main.jpg",
    "symptoms" : "Pale leaf spots, orange pustules",
    "text" : "Pucciniales is an order of the pathogenic fungi that cause rust—one of the most dangerous plant diseases. They can infect two or more hosts at different stages of their lives simultaneously.",
    "title" : "Pucciniales"
  },
  {
    "articleDescriptions" : [
      {
        "text" : "Fortunately, damping-off occurs only in seedlings. The Pythium pathogen causes stunted growth in seedlings and promotes the appearance of cankers on the soil surface. To avoid this, you need to make sure your seedlings are healthy. Then you need to provide suitable soil conditions, including proper drainage. Treat seeds with a specially formulated fungicide to protect them from damping off.",
        "title" : "Damping-off"
      },
      {
        "text" : "This disease occurs when saturated soil is covered with snow for too long. First, affected plants develop tan or orange spots on their foliage. While the root system remains untouched, the crown quickly rots and dies off. Snow blight thrives in high-nitrogen soils with poor drainage. You should pay close attention to your outdoor plants when it gets frosty. Make sure you reduce watering and stop misting in winter.",
        "title" : "Snow blight"
      },
      {
        "text" : "Root rot is an abiotic disorder caused by overwatering and poor drainage. The early symptoms of root rot include leaf discoloration, stem cankers, and stunted growth. The sooner you start treating your plant, the better. First, you need to adjust your watering and misting schedules. Let the soil dry out between waterings. You need to take your plant out of the pot and cut off the rotting roots. Wash the rest under running water and apply a specially formulated fungicide. Repeat the treatment 3 times at a 5 to 7-day interval. Check your plant’s humidity requirements and adjust your misting schedule accordingly.",
        "title" : "Root and crown rot"
      }
    ],
    "id" : "Pythium diseases",
    "imageId" : "\/obj-image\/blog\/diagnose_wiki_pythium_diseases_main.jpg",
    "symptoms" : "Wilting, stunted growth, crown rot, plant death",
    "text" : "Pythium diseases spread through the soil, affecting all parts of the plant but typically causing root rot and damping-off in small seedlings. Symptoms include stunted growth, wilting, crown rot, and death of the plant.",
    "title" : "Pythium diseases"
  },
  {
    "articleDescriptions" : [
      {
        "text" : "Rhizoctonia damping-off occurs in seedlings even before their emergence. Symptoms include reddish-brown sunken lesions and dry cankers. Cankers can overtake the seedling to the point of collapsing. Older plants that manage to survive this infection show similar symptoms, including stunted growth. They can also become chlorotic. To avoid this infection, make sure you buy and plant only high-quality seeds.",
        "title" : "Rhizoctonia damping-off"
      },
      {
        "text" : "Rhizoctonia root rot is a dangerous disease that can lead to premature death of seedlings and older plants. Infected seedlings begin to rot, developing brown to red lesions on stems. Over time, these lesions can become sunken and take over the whole stem or root, eventually killing the plant. The affected plant’s foliage turns yellow and wilts. To prevent Rhizoctonia root rot, you need to treat the affected seeds with a strobilurin fungicide.",
        "title" : "Rhizoctonia root rot"
      },
      {
        "text" : "There are three types of Rhizoctonia blight caused by Rhizoctonia solani: large, brown, and yellow patches. Large patch is characterized by soft, dark brown rot and leaf and stem necrosis. In severe cases, this type of blight induces soft rot. Yellow patch usually occurs in annual grasses. The turf develops yellow or tan patches. Leaf chlorosis is also present. Brown patch blight can be distinguished by a purple leaf edge or smoke rings that appear in the early morning. Affected plants adopt a brownish color. Unfortunately, there isn’t much you can do once the plant gets infected. Make sure to avoid this infection by establishing a proper care routine. Buy only pest- and disease-resistant varieties of plants.",
        "title" : "Rhizoctonia blight"
      }
    ],
    "id" : "Rhizoctonia damping-off, blight and rot",
    "imageId" : "\/obj-image\/blog\/diagnose_wiki_rhizoctonia_damping_off_blight_and_rot_main.jpg",
    "symptoms" : "Death of seedlings, poor growth, wilting",
    "text" : "Infections caused by Rhizoctonia solani fungus lead to damping-off, blight, and rot. Typical symptoms include wilted seedlings, seed and root rot, lesions on hypocotyls, and cankers on the lower stem. In severe cases, these infections cause plant death.",
    "title" : "Rhizoctonia damping-off, blight and rot"
  },
  {
    "articleDescriptions" : [
      {
        "text" : "As nature takes its course, plants lose their youthful vigor and lush looks. Their leaves turn yellow, red, or orange. The plant doesn’t grow as fast as it used to, showing signs of deterioration and stunted growth. However, this doesn’t mean that your plant is preparing to die; it just needs more attention and care. You may have to increase feeding, as older plants frequently experience nutrient deficiency.",
        "title" : "Old age"
      },
      {
        "text" : "Just like people, plants are very sensitive to their environment; when they’re stressed, they become susceptible to various diseases. Environmental stress can be caused by a plethora of reasons: improper care, full sun exposure, lack of light, incorrect watering and misting, over or under-feeding, and so on. Stress can accelerate your plant’s aging process. Read your specific plant’s care instructions and avoid stressing your plant out as much as possible.",
        "title" : "Stress"
      }
    ],
    "id" : "Senescence",
    "imageId" : "\/obj-image\/blog\/diagnose_wiki_senescence_main.jpg",
    "symptoms" : "Yellowing of leaves, red, orange coloration",
    "text" : "Senescence is a process of aging that can occur due to physiological aging or environmental stress. At some point, cells stop dividing but don’t die, starting the process we all know as aging.",
    "title" : "Senescence"
  },
  {
    "articleDescriptions" : [
      {
        "text" : "Fusarium wilt enters through the roots, slowly infecting the whole root system along with stems, leaves, buds, and other plant organs. Fungi affect the vascular system of the whole plant, impairing its ability to transport nutrients. To treat this disease, you need to replace the soil with a loose, nutrient-rich medium. Remove the affected roots. Wash healthy ones with a weak solution of potassium permanganate or disinfect them with a fungicide. Wash the pot with soap and treat it with copper sulfate. In future, make sure to purchase only disease-free cultivars.",
        "title" : "Fusarium wilt"
      },
      {
        "text" : "Dutch elm disease infects elm trees. It’s responsible for the mass death of elms in Europe and North America in the 20th century. This devastating fungus attacks the water-conducting vessels of the elm tree, causing it to wilt and die. This disease spreads so fast that it’s almost impossible to cure the infected tree. Specialists recommend doing Propizol fungicide injections as a means of preventive treatment or in the earliest stages of the disease.",
        "title" : "Dutch elm disease"
      }
    ],
    "id" : "Sordariomycetes",
    "imageId" : "\/obj-image\/blog\/diagnose_wiki_sordariomycetes_main.jpg",
    "symptoms" : "Yellow and wilted leaves, dieback of branches",
    "text" : "Fungi from the Sardiomycetes class cause various plant diseases, such as Dutch elm disease or fusarium wilt.",
    "title" : "Sordariomycetes"
  },
  {
    "articleDescriptions" : [
      {
        "id" : "Aphididae",
        "imageId" : "\/obj-image\/blog\/diagnose_long_aphididae_main.jpg",
        "text" : "Aphids (Aphididae) are small parasitic insects of different colors, most often greenish. They may be wingless or winged. These pests feed on the juice of young shoots and secrete a sugary liquid, known as honeydew. Honeydew attracts ants that gather it for food, so if the affected plant grows outdoors, you can always see ants crowding around it. Aphids reproduce very quickly, forming entire colonies. Some aphid species can spread plant viruses and cause galls. Aphids affect almost all plant species: flower crops, cereals, vines, fruit plants, berries, and vegetable crops.",
        "title" : "Aphididae"
      },
      {
        "id" : "Whiteflies",
        "imageId" : "\/obj-image\/blog\/diagnose_long_whiteflies_main.jpg",
        "text" : "Whiteflies are sucking insects that can inflict severe damage on plants. Adult whiteflies have a pair of wings covered with a powdery coating. The pest feeds on the juice of young shoots and leaves. Adult specimens secrete a sticky liquid, known as honeydew.",
        "title" : "Whiteflies"
      },
      {
        "id" : "Coccoidea",
        "imageId" : "\/obj-image\/blog\/diagnose_long_coccoidea_main.jpg",
        "text" : "Scale insects (Coccoidea) are parasites that stay fixed on the batch of eggs they lay on the plant. Their bodies are protected with a waxy cover in the form of a shield. The covers can differ in size, shape, and color. The cover of a soft scale isn’t attached to its body and can be easily removed, unlike that of an armored scale. \n\nYoung larvae of this pest are highly mobile. They quickly disperse all over the plant, stick to its leaves, shoots, stems, and buds, feeding on its juice. On indoor plants, these pests can be active all year round. The larvae and adult females excrete sticky, sugary honeydew, which creates the perfect environment for sooty mold. As a result, the affected plant develops a dry sooty coating.",
        "title" : "Coccoidea"
      }
    ],
    "id" : "Sternorrhyncha",
    "imageId" : "\/obj-image\/blog\/diagnose_wiki_sternorrhyncha_main.jpg",
    "symptoms" : "Necrosis, yellowing, stunted growth",
    "text" : "Sternorrhyncha is a suborder of the Hemiptera order. Pests of this suborder are major garden pests, well-known to experienced gardeners. Distributed worldwide, all members of this group are plant-feeders.",
    "title" : "Sternorrhyncha"
  },
  {
    "articleDescriptions" : [
      {
        "id" : "Rose rosette disease",
        "imageId" : "\/obj-image\/blog\/diagnose_wiki_rose_rosette_disease_main.jpg",
        "text" : "Rose rosette disease is a viral disease that causes plant deformation. It’s transmitted by eriophyid mites. It usually affects Rosa species.The affected plants show signs of the witch's broom—they develop deformed stems, leaves, and flowers. Rose rosette disease is incurable, but there are several preventive measures you can take to avoid it: proper care, yearly pruning, pest control, and good air circulation. To avoid this disease in the future, carefully inspect plants before buying them. Make sure they are healthy.",
        "title" : "Rose rosette disease"
      },
      {
        "id" : "Tobacco rattle virus",
        "imageId" : "\/obj-image\/blog\/diagnose_long_tobacco_rattle_virus_main.jpg",
        "text" : "Tobacco rattle virus is a viral disease that affects over 400 different species of plants. Nematodes Trichodorus and Paratrichodorus from the Trichodoridae family usually spread this virus. Unfortunately, there is no effective treatment for tobacco rattle virus, so infected plants need to be disposed of. Protect healthy specimens by following all the necessary recommendations: provide your plant with comfortable growing conditions and proper care and don’t plant nightshades near your plants, as they serve as perfect hosts for nematodes.",
        "title" : "Tobacco rattle virus"
      }
    ],
    "id" : "Viruses",
    "imageId" : "\/obj-image\/blog\/diagnose_wiki_viruses_main.jpg",
    "symptoms" : "Mosaic leaf pattern, crinkled leaves, stunted growth",
    "text" : "Viral diseases are infectious disorders caused by small parasites, which leach off host cells that they occupy. Viruses are usually transmitted by insects. If left unchecked, viral diseases can be lethal to plants.",
    "title" : "Viruses"
  }
]