<!doctype html>
<meta http-equiv="X-UA-Compatible" content="IE=Edge">
<!--[if lt IE 7]>      <html class="no-js lt-ie9 lt-ie8 lt-ie7"> <![endif]-->
<!--[if IE 7]>         <html class="no-js lt-ie9 lt-ie8"> <![endif]-->
<!--[if IE 8]>         <html class="no-js lt-ie9"> <![endif]-->
<!--[if gt IE 8]><!--> <html class="no-js"> <!--<![endif]-->
<head>
  <meta charset="utf-8">
  <meta name="viewport" content="width=device-width, initial-scale=1.0"><title class="cushycms" id="Page Title">Plant Database</title>
  <link href="https://cag.uconn.edu/common/css/banner.css" rel="stylesheet">
  <link href="https://cag.uconn.edu/common/css/bootstrap.css" rel="stylesheet">
  <link href="https://cag.uconn.edu/common/css/bootstrap-theme.css" rel="stylesheet">
  <link href="https://cag.uconn.edu/common/css/screen.css" rel="stylesheet">
  <link href="css/custom.css" rel="stylesheet">
  <script type="text/javascript" src="https://cag.uconn.edu/common/js/jquery-1.10.2.min.js"></script>
  <script type="text/javascript" src="https://cag.uconn.edu/common/js/bootstrap.min.js"></script>  <style>
  /**
   * The banner assumes a margin of 0px, but is not included
   * in banner.css to avoid collisions with other themes and 
   * admin bars.
   */
  body {
    margin:0px;
  }
  </style>

  <!-- REPLACE THIS WITH YOUR CUSTOM BUILD OF MODERNIZR -->
  <script src="//ajax.aspnetcdn.com/ajax/modernizr/modernizr-2.0.6-development-only.js"></script>

  <!-- Use if you need responsive layouts for IE -->
  <script src="https://cag.uconn.edu/common/js/respond.js"></script>

</head>

<body>
<div id="uconn-banner">
  <div id="uconn-header-container">
    <div class="container">
      <div class="row-fluid">
        <div id="home-link-container">
          <a id="home-link" href="http://uconn.edu/">
            <span id="wordmark">UCONN</span>
            <span id="university-of-connecticut">UNIVERSITY OF CONNECTICUT</span>
          </a>
        </div>
          <div id="button-container">
            <span>
              <a class="btn" href="http://uconn.edu/search.php" title="Search"><i class="icon-search"></i>
              </a>
            </span>
            <span>
              <a class="btn" href="http://uconn.edu/azindex.php" title="AZ Index"><i class="icon-a-z"></i></a>
            </span>
          </div>
      </div>  
    </div>  
  </div>
  <div class="container" id="site-header">
    <div class="row-fluid">
      <div>
        <p id="super-title" class="left"><a href="http://cag.uconn.edu/">College of Agriculture, Health and Natural Resources</a></p>
        <h1 id="site-title"><a href="index.php">Plant Database</a></h1>
      </div>

      <div id="search-container">
        <div class="titleButtons">
             <a href="search.php">Search by Trait</a>
             <a href="list.php" style="margin-right: 0px;">List by Name</a>
           </div>
      </div>

    </div>
  </div>
</div>

  <div class="white container">
    <div class="row" id="maincontainer">
		
			
						<h1 class='latinName'>Larix laricina</h1>
						<h2>Tamarack, Eastern Larch</h2>
						<h3>Pinaceae</h3>
					<div id='photoStrip'></div><a href='#' id='photoToggle'>Expand</a>
						<div id='description'>        <P><FONT SIZE="4">Habitat</FONT>    </P>    <UL>      <LI>native to northern North America, from northern United States into        Canada and Arctic Circle</LI>      <LI>Zone 1</LI>     </UL>                   <P><FONT SIZE="4">Habit and Form</FONT>    </P>    <UL>      <LI>deciduous conifer</LI>      <LI>50&#39; to 80&#39; tall by 20&#39; to 30&#39; wide</LI>      <LI>pyramidal in habit with horizontal branches and weeping branchlets      </LI>      <LI>fine to medium foliage texture, coarse in winter</LI>      <LI>slow to moderate growth rate</LI>    </UL>        <P><FONT SIZE="4">Summer Foliage</FONT>    </P>    <UL>      <LI>3-sided needle</LI>      <LI>0.75&quot; to 1.25&quot; long</LI>      <LI>bluish green in color</LI>      <LI>needles in clusters of 30 or less on spurs</LI>      <LI>needles spirally arranged on long shoots</LI>      <LI>dark reddish brown, resinous buds</LI>    </UL>        <P><FONT SIZE="4">Autumn Foliage</FONT>    </P>    <UL>      <LI>needles turn yellow before dropping</LI>      <LI>typically showy</LI>    </UL>        <P><FONT SIZE="4">Flowers</FONT>    </P>    <UL>      <LI>monoecious</LI>      <LI>not especially ornamental</LI>    </UL>        <P><FONT SIZE="4">Fruit</FONT>    </P>    <UL>      <LI>globose-ovoid, less than 0.75&quot; long</LI>      <LI>12 to 20 scales</LI>      <LI>scales are smooth and minutely crenulate </LI>    </UL>        <P><FONT SIZE="4">Bark</FONT> </P>    <UL>      <LI>scaly, gray to reddish brown </LI>      <LI>young stems are thin, pubescent, and reddish brown</LI>    </UL>        <P><FONT SIZE="4">Culture</FONT></P>    <UL>      <LI>cool summers are required</LI>      <LI>moist, well-drained, acidic soil is best, but tolerant of wet soils</LI>      <LI>full sun </LI>    </UL>        <P><FONT SIZE="4">Landscape Uses</FONT>    </P>    <UL>      <LI>best used in native habitat; not well suited to cultivation</LI>      <LI>fall color</LI>      <LI>work well planted in groves or groupings</LI>    </UL>        <P><FONT SIZE="4">Liabilities</FONT>    </P>    <UL>      <LI>hard to find</LI>      <LI>not tolerant of any heat, shade, or air pollution </LI>      <LI>larch case-bearer, woolly aphid, sawfly are pest problem</LI>      <LI>intolerant of cultivation </LI>    </UL>        <P><FONT SIZE="4">ID Features</FONT>    </P>    <UL>      <LI>spurs on branches</LI>      <LI>cones are very small and egg-shaped</LI>      <LI>cones are persistent on tree </LI>      <LI>new stems are pubescent</LI>    </UL>        <P><FONT SIZE="4">Propagation</FONT>    </P>    <UL>      <LI>by seeds</LI>    </UL>        <P><FONT SIZE="4">Cultivars/Varieties</FONT></P><P>Few cultivars of this native species exist, and most are of little commercial   importance. Dr. Sid Waxman at the University of Connecticut has selected some   dwarf and other specialized forms.</P><P>Dwarf forms include: <b>&#39;Blue Sparkler&#39;</b>, with bluish foliage;<b> &#39;Deborah   Waxman&#39;</b>, which reaches 4&#39; in time; <b>&#39;Lanark&#39;</b>, which grows very low   and wide; and<b> &#39;Newport Beauty&#39;</b>, a tiny form probably never exceeding   2&#39; tall and wide.</P>    </div>
					<script type="text/javascript">document.title = "Larix laricina, Tamarack, Eastern Larch - Plant Database - University of Connecticut";</script>		
		
		<link rel="stylesheet" href="css/main.css" type="text/css" charset="utf-8">
		<script type="text/javascript" src="js/detail.js"></script>
	</div>
  </div>
  
  
  <div class="container">
	<div class="row PDfoot"> 
<div class="col-md-12">
<p>&copy; Copyright Mark H. Brand, 1997-2015.</p>
 <p>The digital materials (images and text) available from the UConn Plant Database are protected by copyright. Public use via the Internet for non-profit and educational purposes is permitted. Use of the materials for profit is prohibited.</p>
 <p>Citation and Acknowledgements: University of Connecticut Plant Database, <a href="http://www.hort.uconn.edu/plants">http://hort.uconn.edu/plants</a>, Mark H. Brand, Department of Plant Science and Landscape Architecture, Storrs, CT 06269-4067 USA.</p>
</div>
</div>  </div>
<div class=" container UCfoot">
    <div class="container">
  	<div id="footer">
    	© <a href="http://uconn.edu/">University of Connecticut</a>&nbsp;&nbsp;&nbsp;&nbsp;&nbsp;&nbsp;&nbsp;&nbsp;&nbsp;&nbsp;&nbsp;<a href="http://uconn.edu/disclaimers-and-copyrights.php" id="disHide">Disclaimers, Privacy & Copyright</a>    
    </div>
  </div>
</body>
</html></div>